Quick start guide • corella
…
This nested structure allows the newly formatted information (now in
long format) to still link correctly to each species occurrence. To view
or access this now-standardised long-format data, use
dplyr::unnest().

df_nested |>
  unnest(measurementOrFact)
#> # A tibble: 153 × 8
#>    Site           Species      Latitude Longitude measurementValue measurementID
#>    <chr>          <chr>           <dbl>     <dbl>            <dbl> <chr>        
#>  1 Downfall Creek Gossia hill…    -17.2      146.           156.   LMA_g.m2|1   
#>  2 Downfall Creek Gossia hill…    -17.2      146.             1.54 LeafN_area_g…
#>  3 Downfall Creek Gossia hill…    -17.2      146.             2.70 PNUE|1       
#>  4 Downfall Creek Homalium ci…    -17.2      146.           116.   LMA_g.m2|2   
#>  5 Downfall Creek Homalium ci…    -17.2      146.             1.73 LeafN_area_g…
#>  6 Downfall Creek Homalium ci…    -17.2      146.             3.93 PNUE|2       
#>  7 Downfall Creek Polyalthia …    -17.2      146.            99.9  LMA_g.m2|3   
#>  8 Downfall Creek Polyalthia …    -17.2      146.             1.84 LeafN_area_g…
#>  9 Downfall Creek Polyalthia …    -17.2      146.             2.27 PNUE|3       
#> 10 Downfall Creek Pseudoweinm…    -17.2      146.           128.   LMA_g.m2|4   
#> # ℹ 143 more rows
#> # ℹ 2 more variables: measurementUnit <chr>, measurementType <chr>
…
